{
  "$schema": "https://themost-framework.github.io/themost/models/2018/2/schema.json",
  "@id": "https://universis.io/schemas/EmploymentStatus",
  "name": "EmploymentStatus",
  "type": "lookup",
  "title": "Employment status",
  "abstract": false,
  "implements": "Enumeration",
  "category": "lookup",
  "version": "1.0",
  "fields": [
    {
      "name": "id",
      "title": "Id",
      "type": "Counter",
      "nullable": false,
      "primary": true
    },
    {
      "name": "locales",
      "type": "EmploymentStatusLocale",
      "mapping": {
        "associationType": "association",
        "cascade": "delete",
        "parentModel": "EmploymentStatus",
        "parentField": "id",
        "childModel": "EmploymentStatusLocale",
        "childField": "object"
      }
    },
    {
      "name": "locale",
      "type": "EmploymentStatusLocale",
      "readonly": true,
      "editable": false,
      "many": true,
      "expandable": true,
      "multiplicity": "ZeroOrOne",
      "mapping": {
        "associationType": "association",
        "cascade": "delete",
        "parentModel": "EmploymentStatus",
        "parentField": "id",
        "childModel": "EmploymentStatusLocale",
        "childField": "object",
        "options": {
          "$filter": "inLanguage eq lang()",
          "$first": true
        }
      }
    }
  ],
  "privileges": [
    {
      "mask": 1,
      "type": "global",
      "account": "*"
    },
    {
      "mask": 15,
      "type": "global"
    },
    {
      "mask": 15,
      "type": "global",
      "account": "Administrators"
    }
  ],
  "constraints": [
    {
      "type": "unique",
      "description": "Name must be unique across different records",
      "fields": [
        "name"
      ]
    }
  ],
  "eventListeners": [
    {
      "type": "./listeners/data-localization"
    }
  ],
  "seed": [
    {
      "name": "Άνεργος/η",
      "alternateName": "unemployed",
      "locales": [
        {
          "inLanguage": "en",
          "name": "Unemployed"
        }
      ]
    },
    {
      "name": "Εργαζόμενος/η",
      "alternateName": "employed",
      "locales": [
        {
          "inLanguage": "en",
          "name": "Employed"
        }
      ]
    },
    {
      "name": "Συνταξιούχος/α",
      "alternateName": "retired",
      "locales": [
        {
          "inLanguage": "en",
          "name": "Retired"
        }
      ]
    }
  ]
}
